[
  {
    "images": [
      "https://res.cloudinary.com/bookit/image/upload/v1618590762/bookit/rooms/1_bzynlv.jpg",
      "https://res.cloudinary.com/bookit/image/upload/v1618590762/bookit/rooms/3_quuli7.jpg"
    ],
    "description": "Lorem ipsum dolor sit amet, consectetur adipisicing elit. Quaerat perferendis possimus tempora blanditiis porro magni reiciendis laboriosam, fuga commodi facere esse cumque nihil corrupti nobis dolores necessitatibus maxime. Architecto nisi officiis ut optio non aliquid veritatis culpa libero, labore eos laudantium similique sunt cupiditate sint dolore velit nulla, debitis delectus a vitae nesciunt cumque iusto? Esse eius ea voluptas quod expedita rem distinctio corrupti suscipit ducimus veniam aliquid id iusto, ab asperiores aspernatur explicabo doloremque facilis? Iusto nobis vitae officiis, maxime assumenda ratione optio provident dolore nisi ad consequuntur architecto amet aspernatur, suscipit cumque, beatae aperiam eaque! Aperiam, ducimus tempore eius suscipit nam ratione quas aliquid non consequatur fuga, dicta molestias sint aspernatur dolore molestiae ipsum minus! Soluta illo similique deleniti consectetur, laborum ab suscipit nihil et perferendis vitae provident id! Recusandae nesciunt a non placeat quam ab mollitia commodi cumque, qui, pariatur et error velit esse fuga, culpa alias? Sed aliquam voluptatibus cum reprehenderit nisi ea culpa commodi, quam est aliquid. Ipsa expedita, dolore maxime sunt quae.",
    "features": {
      "guestCapacity": null,
      "numOfBeds": null,
      "breakfast": null,
      "internet": false,
      "airConditioned": true,
      "petsAllowed": true,
      "roomCleaning": true
    }
  },
  {
    "images": [
      "https://res.cloudinary.com/bookit/image/upload/v1618590762/bookit/rooms/3_quuli7.jpg"
    ],
    "description": "Lorem ipsum dolor sit amet, consectetur adipisicing elit. Quaerat perferendis possimus tempora blanditiis porro magni reiciendis laboriosam, fuga commodi facere esse cumque nihil corrupti nobis dolores necessitatibus maxime. Architecto nisi officiis ut optio non aliquid veritatis culpa libero, labore eos laudantium similique sunt cupiditate sint dolore velit nulla, debitis delectus a vitae nesciunt cumque iusto? Esse eius ea voluptas quod expedita rem distinctio corrupti suscipit ducimus veniam aliquid id iusto, ab asperiores aspernatur explicabo doloremque facilis? Iusto nobis vitae officiis, maxime assumenda ratione optio provident dolore nisi ad consequuntur architecto amet aspernatur, suscipit cumque, beatae aperiam eaque! Aperiam, ducimus tempore eius suscipit nam ratione quas aliquid non consequatur fuga, dicta molestias sint aspernatur dolore molestiae ipsum minus! Soluta illo similique deleniti consectetur, laborum ab suscipit nihil et perferendis vitae provident id! Recusandae nesciunt a non placeat quam ab mollitia commodi cumque, qui, pariatur et error velit esse fuga, culpa alias? Sed aliquam voluptatibus cum reprehenderit nisi ea culpa commodi, quam est aliquid. Ipsa expedita, dolore maxime sunt quae.",
    "features": {
      "guestCapacity": null,
      "numOfBeds": null,
      "breakfast": null,
      "internet": false,
      "airConditioned": true,
      "petsAllowed": true,
      "roomCleaning": true
    }
  },
  {
    "images": [
      "https://res.cloudinary.com/bookit/image/upload/v1618590765/bookit/rooms/4_sju0ql.jpg"
    ],
    "description": "Lorem ipsum dolor sit amet, consectetur adipisicing elit. Quaerat perferendis possimus tempora blanditiis porro magni reiciendis laboriosam, fuga commodi facere esse cumque nihil corrupti nobis dolores necessitatibus maxime. Architecto nisi officiis ut optio non aliquid veritatis culpa libero, labore eos laudantium similique sunt cupiditate sint dolore velit nulla, debitis delectus a vitae nesciunt cumque iusto? Esse eius ea voluptas quod expedita rem distinctio corrupti suscipit ducimus veniam aliquid id iusto, ab asperiores aspernatur explicabo doloremque facilis? Iusto nobis vitae officiis, maxime assumenda ratione optio provident dolore nisi ad consequuntur architecto amet aspernatur, suscipit cumque, beatae aperiam eaque! Aperiam, ducimus tempore eius suscipit nam ratione quas aliquid non consequatur fuga, dicta molestias sint aspernatur dolore molestiae ipsum minus! Soluta illo similique deleniti consectetur, laborum ab suscipit nihil et perferendis vitae provident id! Recusandae nesciunt a non placeat quam ab mollitia commodi cumque, qui, pariatur et error velit esse fuga, culpa alias? Sed aliquam voluptatibus cum reprehenderit nisi ea culpa commodi, quam est aliquid. Ipsa expedita, dolore maxime sunt quae.",
    "features": {
      "guestCapacity": null,
      "numOfBeds": null,
      "breakfast": null,
      "internet": false,
      "airConditioned": true,
      "petsAllowed": true,
      "roomCleaning": true
    }
  },
  {
    "images": [
      "https://res.cloudinary.com/bookit/image/upload/v1618590762/bookit/rooms/5_jmydt6.jpg"
    ],
    "description": "Lorem ipsum dolor sit amet, consectetur adipisicing elit. Quaerat perferendis possimus tempora blanditiis porro magni reiciendis laboriosam, fuga commodi facere esse cumque nihil corrupti nobis dolores necessitatibus maxime. Architecto nisi officiis ut optio non aliquid veritatis culpa libero, labore eos laudantium similique sunt cupiditate sint dolore velit nulla, debitis delectus a vitae nesciunt cumque iusto? Esse eius ea voluptas quod expedita rem distinctio corrupti suscipit ducimus veniam aliquid id iusto, ab asperiores aspernatur explicabo doloremque facilis? Iusto nobis vitae officiis, maxime assumenda ratione optio provident dolore nisi ad consequuntur architecto amet aspernatur, suscipit cumque, beatae aperiam eaque! Aperiam, ducimus tempore eius suscipit nam ratione quas aliquid non consequatur fuga, dicta molestias sint aspernatur dolore molestiae ipsum minus! Soluta illo similique deleniti consectetur, laborum ab suscipit nihil et perferendis vitae provident id! Recusandae nesciunt a non placeat quam ab mollitia commodi cumque, qui, pariatur et error velit esse fuga, culpa alias? Sed aliquam voluptatibus cum reprehenderit nisi ea culpa commodi, quam est aliquid. Ipsa expedita, dolore maxime sunt quae.",
    "features": {
      "guestCapacity": null,
      "numOfBeds": null,
      "breakfast": null,
      "internet": false,
      "airConditioned": true,
      "petsAllowed": true,
      "roomCleaning": true
    }
  }
]
